{
	"id": "44d0cc22-3f8e-4bc5-a948-84a76f145b11",
	"name": "local env",
	"values": [
		{
			"key": "base_url",
			"value": "http://localhost:3000",
			"type": "default",
			"enabled": true
		},
		{
			"key": "token",
			"value": "eyJhbGciOiJIUzI1NiIsInR5cCI6IkpXVCJ9.eyJpZCI6MSwidXNlcm5hbWUiOiJqb24gZG9lIiwiZW1haWwiOiJqb25kb2VAbWFpbC5jb20iLCJpYXQiOjE2NTAxNTA0MTd9.L8i5YZVCLAK7MfJGtuOAvinEcxQc1hKOuRxcm79v6zE",
			"type": "default",
			"enabled": true
		}
	],
	"_postman_variable_scope": "environment",
	"_postman_exported_at": "2022-04-17T00:33:58.650Z",
	"_postman_exported_using": "Postman/9.15.13"
}